%YAML 1.1
%TAG !u! tag:unity3d.com,2011:
--- !u!1045 &1
EditorBuildSettings:
  m_ObjectHideFlags: 0
  serializedVersion: 2
  m_Scenes:
  - enabled: 1
    path: Assets/Scenes/MainMenu.unity
    guid: ef277e4ba0ab37544ad01902c9b9de8e
  - enabled: 1
    path: Assets/Scenes/Game.unity
    guid: 99c9720ab356a0642a771bea13969a05
  m_configObjects: {}
