%YAML 1.1
%TAG !u! tag:unity3d.com,2011:
--- !u!78 &1
TagManager:
  serializedVersion: 2
  tags: []
  layers:
  - Default
  - TransparentFX
  - Ignore Raycast
  - 
  - Water
  - UI
  - 
  - 
  - PostProcessing
  - 
  - 
  - 
  - 
  - 
  - 
  - 
  - 
  - 
  - 
  - 
  - 
  - 
  - 
  - 
  - 
  - 
  - 
  - 
  - 
  - 
  - 
  - 
  m_SortingLayers:
  - name: Default
    uniqueID: 0
    locked: 0
  - name: Background
    uniqueID: 2391471013
    locked: 0
  - name: ObjectsBehind
    uniqueID: 364471675
    locked: 0
  - name: Player
    uniqueID: 1823309923
    locked: 0
  - name: ObjectsFront
    uniqueID: 971964467
    locked: 0
  - name: UI
    uniqueID: 353050341
    locked: 0
